[3878, 13895, 61.439731777100896, [{'CLR': [0, 0], 'FEW': [0, 0], 'SCT': [0, 0], 'BKN': [0, 0], 'OVC': [0, 0], 'VV': [0, 0], '10': [0, 0], 'MISC': [0, 0]}, {'CLR': array([22667,  4283]), 'FEW': array([1181, 5359]), 'SCT': array([ 960, 4733]), 'BKN': array([2626, 7643]), 'OVC': array([21244,  8669]), 'VV': array([ 390, 1137]), '10': [0, 0], 'MISC': array([0, 6])}, {'CLR': array([797, 199]), 'FEW': array([ 91, 805]), 'SCT': array([ 204, 1503]), 'BKN': array([ 868, 3005]), 'OVC': array([7566, 4287]), 'VV': array([ 99, 594]), '10': [0, 0], 'MISC': array([0, 5])}, {'CLR': array([97, 22]), 'FEW': array([ 20, 218]), 'SCT': array([ 16, 199]), 'BKN': array([ 64, 311]), 'OVC': array([198, 381]), 'VV': array([  7, 157]), '10': [0, 0], 'MISC': [0, 0]}, {'CLR': array([1035,  328]), 'FEW': array([ 67, 272]), 'SCT': array([ 33, 238]), 'BKN': array([ 36, 336]), 'OVC': array([111, 550]), 'VV': array([  3, 127]), '10': [0, 0], 'MISC': array([0, 1])}]]
[63862, 63857, 44.392377708950384, [{'CLR': [0, 0], 'FEW': [0, 0], 'SCT': [0, 0], 'BKN': [0, 0], 'OVC': [0, 0], 'VV': [0, 0], '10': [0, 0], 'MISC': [0, 0]}, {'CLR': [0, 0], 'FEW': [0, 0], 'SCT': [0, 0], 'BKN': [0, 0], 'OVC': [0, 0], 'VV': [0, 0], '10': [0, 0], 'MISC': [0, 0]}, {'CLR': [0, 0], 'FEW': [0, 0], 'SCT': [0, 0], 'BKN': [0, 0], 'OVC': [0, 0], 'VV': [0, 0], '10': [0, 0], 'MISC': [0, 0]}, {'CLR': [0, 0], 'FEW': [0, 0], 'SCT': [0, 0], 'BKN': [0, 0], 'OVC': [0, 0], 'VV': [0, 0], '10': [0, 0], 'MISC': [0, 0]}, {'CLR': [0, 0], 'FEW': [0, 0], 'SCT': [0, 0], 'BKN': [0, 0], 'OVC': [0, 0], 'VV': [0, 0], '10': [0, 0], 'MISC': [0, 0]}]]
[53843, 53820, 62.852750708469884, [{'CLR': [0, 0], 'FEW': [0, 0], 'SCT': [0, 0], 'BKN': [0, 0], 'OVC': [0, 0], 'VV': [0, 0], '10': [0, 0], 'MISC': [0, 0]}, {'CLR': array([21432,  5305]), 'FEW': array([1116, 4373]), 'SCT': array([ 871, 4400]), 'BKN': array([2448, 7236]), 'OVC': array([21837,  6315]), 'VV': array([ 843, 1389]), '10': array([0, 1]), 'MISC': array([ 0, 51])}, {'CLR': array([168, 219]), 'FEW': array([127, 553]), 'SCT': array([ 219, 1225]), 'BKN': array([ 692, 2502]), 'OVC': array([6647, 2866]), 'VV': array([421, 558]), '10': [0, 0], 'MISC': array([ 0, 20])}, {'CLR': array([ 46, 250]), 'FEW': array([118, 203]), 'SCT': array([ 69, 216]), 'BKN': array([119, 304]), 'OVC': array([228, 389]), 'VV': array([15, 68]), '10': [0, 0], 'MISC': array([0, 1])}, {'CLR': array([ 197, 1440]), 'FEW': array([239, 294]), 'SCT': array([ 88, 320]), 'BKN': array([128, 410]), 'OVC': array([ 89, 392]), 'VV': array([  3, 126]), '10': [0, 0], 'MISC': [0, 0]}]]
[73803, 63833, 73.57621652279914, [{'CLR': [0, 0], 'FEW': [0, 0], 'SCT': [0, 0], 'BKN': [0, 0], 'OVC': [0, 0], 'VV': [0, 0], '10': [0, 0], 'MISC': [0, 0]}, {'CLR': [0, 0], 'FEW': [0, 0], 'SCT': [0, 0], 'BKN': [0, 0], 'OVC': [0, 0], 'VV': [0, 0], '10': [0, 0], 'MISC': [0, 0]}, {'CLR': [0, 0], 'FEW': [0, 0], 'SCT': [0, 0], 'BKN': [0, 0], 'OVC': [0, 0], 'VV': [0, 0], '10': [0, 0], 'MISC': [0, 0]}, {'CLR': [0, 0], 'FEW': [0, 0], 'SCT': [0, 0], 'BKN': [0, 0], 'OVC': [0, 0], 'VV': [0, 0], '10': [0, 0], 'MISC': [0, 0]}, {'CLR': [0, 0], 'FEW': [0, 0], 'SCT': [0, 0], 'BKN': [0, 0], 'OVC': [0, 0], 'VV': [0, 0], '10': [0, 0], 'MISC': [0, 0]}]]
[73802, 13821, 52.05111607192048, [{'CLR': [0, 0], 'FEW': [0, 0], 'SCT': [0, 0], 'BKN': [0, 0], 'OVC': [0, 0], 'VV': [0, 0], '10': [0, 0], 'MISC': [0, 0]}, {'CLR': [0, 0], 'FEW': [0, 0], 'SCT': [0, 0], 'BKN': [0, 0], 'OVC': [0, 0], 'VV': [0, 0], '10': [0, 0], 'MISC': [0, 0]}, {'CLR': [0, 0], 'FEW': [0, 0], 'SCT': [0, 0], 'BKN': [0, 0], 'OVC': [0, 0], 'VV': [0, 0], '10': [0, 0], 'MISC': [0, 0]}, {'CLR': [0, 0], 'FEW': [0, 0], 'SCT': [0, 0], 'BKN': [0, 0], 'OVC': [0, 0], 'VV': [0, 0], '10': [0, 0], 'MISC': [0, 0]}, {'CLR': [0, 0], 'FEW': [0, 0], 'SCT': [0, 0], 'BKN': [0, 0], 'OVC': [0, 0], 'VV': [0, 0], '10': [0, 0], 'MISC': [0, 0]}]]
[53861, 23801, 53.715266820151776, [{'CLR': [0, 0], 'FEW': [0, 0], 'SCT': [0, 0], 'BKN': [0, 0], 'OVC': [0, 0], 'VV': [0, 0], '10': [0, 0], 'MISC': [0, 0]}, {'CLR': [0, 0], 'FEW': [0, 0], 'SCT': [0, 0], 'BKN': [0, 0], 'OVC': [0, 0], 'VV': [0, 0], '10': [0, 0], 'MISC': [0, 0]}, {'CLR': [0, 0], 'FEW': [0, 0], 'SCT': [0, 0], 'BKN': [0, 0], 'OVC': [0, 0], 'VV': [0, 0], '10': [0, 0], 'MISC': [0, 0]}, {'CLR': [0, 0], 'FEW': [0, 0], 'SCT': [0, 0], 'BKN': [0, 0], 'OVC': [0, 0], 'VV': [0, 0], '10': [0, 0], 'MISC': [0, 0]}, {'CLR': [0, 0], 'FEW': [0, 0], 'SCT': [0, 0], 'BKN': [0, 0], 'OVC': [0, 0], 'VV': [0, 0], '10': [0, 0], 'MISC': [0, 0]}]]
[63880, 63867, 49.79885498346075, [{'CLR': [0, 0], 'FEW': [0, 0], 'SCT': [0, 0], 'BKN': [0, 0], 'OVC': [0, 0], 'VV': [0, 0], '10': [0, 0], 'MISC': [0, 0]}, {'CLR': [0, 0], 'FEW': [0, 0], 'SCT': [0, 0], 'BKN': [0, 0], 'OVC': [0, 0], 'VV': [0, 0], '10': [0, 0], 'MISC': [0, 0]}, {'CLR': [0, 0], 'FEW': [0, 0], 'SCT': [0, 0], 'BKN': [0, 0], 'OVC': [0, 0], 'VV': [0, 0], '10': [0, 0], 'MISC': [0, 0]}, {'CLR': [0, 0], 'FEW': [0, 0], 'SCT': [0, 0], 'BKN': [0, 0], 'OVC': [0, 0], 'VV': [0, 0], '10': [0, 0], 'MISC': [0, 0]}, {'CLR': [0, 0], 'FEW': [0, 0], 'SCT': [0, 0], 'BKN': [0, 0], 'OVC': [0, 0], 'VV': [0, 0], '10': [0, 0], 'MISC': [0, 0]}]]
[63868, 138, 49.51673212078203, [{'CLR': [0, 0], 'FEW': [0, 0], 'SCT': [0, 0], 'BKN': [0, 0], 'OVC': [0, 0], 'VV': [0, 0], '10': [0, 0], 'MISC': [0, 0]}, {'CLR': [0, 0], 'FEW': [0, 0], 'SCT': [0, 0], 'BKN': [0, 0], 'OVC': [0, 0], 'VV': [0, 0], '10': [0, 0], 'MISC': [0, 0]}, {'CLR': [0, 0], 'FEW': [0, 0], 'SCT': [0, 0], 'BKN': [0, 0], 'OVC': [0, 0], 'VV': [0, 0], '10': [0, 0], 'MISC': [0, 0]}, {'CLR': [0, 0], 'FEW': [0, 0], 'SCT': [0, 0], 'BKN': [0, 0], 'OVC': [0, 0], 'VV': [0, 0], '10': [0, 0], 'MISC': [0, 0]}, {'CLR': [0, 0], 'FEW': [0, 0], 'SCT': [0, 0], 'BKN': [0, 0], 'OVC': [0, 0], 'VV': [0, 0], '10': [0, 0], 'MISC': [0, 0]}]]
[63833, 13871, 75.38251276039824, [{'CLR': [0, 0], 'FEW': [0, 0], 'SCT': [0, 0], 'BKN': [0, 0], 'OVC': [0, 0], 'VV': [0, 0], '10': [0, 0], 'MISC': [0, 0]}, {'CLR': array([21787,  7080]), 'FEW': [0, 0], 'SCT': array([1465, 9046]), 'BKN': array([1494, 5870]), 'OVC': array([18277,  4337]), 'VV': array([ 19, 116]), '10': array([0, 4]), 'MISC': array([  2, 147])}, {'CLR': array([43652, 10825]), 'FEW': [0, 0], 'SCT': array([ 2346, 14080]), 'BKN': array([1863, 7854]), 'OVC': array([18386,  5143]), 'VV': array([ 18, 148]), '10': array([0, 3]), 'MISC': array([  5, 187])}, {'CLR': array([942, 388]), 'FEW': [0, 0], 'SCT': array([253, 886]), 'BKN': array([ 88, 359]), 'OVC': array([268, 369]), 'VV': array([0, 7]), '10': [0, 0], 'MISC': array([0, 5])}, {'CLR': array([68, 35]), 'FEW': [0, 0], 'SCT': array([ 472, 1616]), 'BKN': array([ 96, 577]), 'OVC': array([189, 646]), 'VV': array([ 0, 15]), '10': [0, 0], 'MISC': array([0, 1])}]]
[13838, 63899, 112.8286022685536, [{'CLR': [0, 0], 'FEW': [0, 0], 'SCT': [0, 0], 'BKN': [0, 0], 'OVC': [0, 0], 'VV': [0, 0], '10': [0, 0], 'MISC': [0, 0]}, {'CLR': [0, 0], 'FEW': [0, 0], 'SCT': [0, 0], 'BKN': [0, 0], 'OVC': [0, 0], 'VV': [0, 0], '10': [0, 0], 'MISC': [0, 0]}, {'CLR': [0, 0], 'FEW': [0, 0], 'SCT': [0, 0], 'BKN': [0, 0], 'OVC': [0, 0], 'VV': [0, 0], '10': [0, 0], 'MISC': [0, 0]}, {'CLR': [0, 0], 'FEW': [0, 0], 'SCT': [0, 0], 'BKN': [0, 0], 'OVC': [0, 0], 'VV': [0, 0], '10': [0, 0], 'MISC': [0, 0]}, {'CLR': [0, 0], 'FEW': [0, 0], 'SCT': [0, 0], 'BKN': [0, 0], 'OVC': [0, 0], 'VV': [0, 0], '10': [0, 0], 'MISC': [0, 0]}]]
[63891, 13895, 64.28713914633985, [{'CLR': [0, 0], 'FEW': [0, 0], 'SCT': [0, 0], 'BKN': [0, 0], 'OVC': [0, 0], 'VV': [0, 0], '10': [0, 0], 'MISC': [0, 0]}, {'CLR': [0, 0], 'FEW': [0, 0], 'SCT': [0, 0], 'BKN': [0, 0], 'OVC': [0, 0], 'VV': [0, 0], '10': [0, 0], 'MISC': [0, 0]}, {'CLR': [0, 0], 'FEW': [0, 0], 'SCT': [0, 0], 'BKN': [0, 0], 'OVC': [0, 0], 'VV': [0, 0], '10': [0, 0], 'MISC': [0, 0]}, {'CLR': [0, 0], 'FEW': [0, 0], 'SCT': [0, 0], 'BKN': [0, 0], 'OVC': [0, 0], 'VV': [0, 0], '10': [0, 0], 'MISC': [0, 0]}, {'CLR': [0, 0], 'FEW': [0, 0], 'SCT': [0, 0], 'BKN': [0, 0], 'OVC': [0, 0], 'VV': [0, 0], '10': [0, 0], 'MISC': [0, 0]}]]
[63894, 53852, 64.91179167754336, [{'CLR': [0, 0], 'FEW': [0, 0], 'SCT': [0, 0], 'BKN': [0, 0], 'OVC': [0, 0], 'VV': [0, 0], '10': [0, 0], 'MISC': [0, 0]}, {'CLR': [0, 0], 'FEW': [0, 0], 'SCT': [0, 0], 'BKN': [0, 0], 'OVC': [0, 0], 'VV': [0, 0], '10': [0, 0], 'MISC': [0, 0]}, {'CLR': [0, 0], 'FEW': [0, 0], 'SCT': [0, 0], 'BKN': [0, 0], 'OVC': [0, 0], 'VV': [0, 0], '10': [0, 0], 'MISC': [0, 0]}, {'CLR': [0, 0], 'FEW': [0, 0], 'SCT': [0, 0], 'BKN': [0, 0], 'OVC': [0, 0], 'VV': [0, 0], '10': [0, 0], 'MISC': [0, 0]}, {'CLR': [0, 0], 'FEW': [0, 0], 'SCT': [0, 0], 'BKN': [0, 0], 'OVC': [0, 0], 'VV': [0, 0], '10': [0, 0], 'MISC': [0, 0]}]]
[13876, 63867, 70.0998833446592, [{'CLR': [0, 0], 'FEW': [0, 0], 'SCT': [0, 0], 'BKN': [0, 0], 'OVC': [0, 0], 'VV': [0, 0], '10': [0, 0], 'MISC': [0, 0]}, {'CLR': [0, 0], 'FEW': [0, 0], 'SCT': [0, 0], 'BKN': [0, 0], 'OVC': [0, 0], 'VV': [0, 0], '10': [0, 0], 'MISC': [0, 0]}, {'CLR': [0, 0], 'FEW': [0, 0], 'SCT': [0, 0], 'BKN': [0, 0], 'OVC': [0, 0], 'VV': [0, 0], '10': [0, 0], 'MISC': [0, 0]}, {'CLR': [0, 0], 'FEW': [0, 0], 'SCT': [0, 0], 'BKN': [0, 0], 'OVC': [0, 0], 'VV': [0, 0], '10': [0, 0], 'MISC': [0, 0]}, {'CLR': [0, 0], 'FEW': [0, 0], 'SCT': [0, 0], 'BKN': [0, 0], 'OVC': [0, 0], 'VV': [0, 0], '10': [0, 0], 'MISC': [0, 0]}]]
[63870, 53861, 63.70554572630477, [{'CLR': [0, 0], 'FEW': [0, 0], 'SCT': [0, 0], 'BKN': [0, 0], 'OVC': [0, 0], 'VV': [0, 0], '10': [0, 0], 'MISC': [0, 0]}, {'CLR': array([18995,  5139]), 'FEW': array([1095, 3816]), 'SCT': array([ 856, 3944]), 'BKN': array([2572, 6710]), 'OVC': array([18785,  6437]), 'VV': array([ 250, 1085]), '10': [0, 0], 'MISC': array([1, 5])}, {'CLR': array([175, 222]), 'FEW': array([112, 733]), 'SCT': array([ 199, 1171]), 'BKN': array([ 871, 2703]), 'OVC': array([5786, 2532]), 'VV': array([ 55, 267]), '10': [0, 0], 'MISC': array([0, 1])}, {'CLR': array([170, 125]), 'FEW': array([133, 234]), 'SCT': array([ 75, 227]), 'BKN': array([139, 434]), 'OVC': array([393, 393]), 'VV': array([ 7, 53]), '10': [0, 0], 'MISC': [0, 0]}, {'CLR': array([575, 885]), 'FEW': array([293, 496]), 'SCT': array([132, 505]), 'BKN': array([202, 863]), 'OVC': array([646, 875]), 'VV': array([  5, 107]), '10': [0, 0], 'MISC': array([0, 1])}]]
[138, 63894, 56.38384947916035, [{'CLR': [0, 0], 'FEW': [0, 0], 'SCT': [0, 0], 'BKN': [0, 0], 'OVC': [0, 0], 'VV': [0, 0], '10': [0, 0], 'MISC': [0, 0]}, {'CLR': [0, 0], 'FEW': [0, 0], 'SCT': [0, 0], 'BKN': [0, 0], 'OVC': [0, 0], 'VV': [0, 0], '10': [0, 0], 'MISC': [0, 0]}, {'CLR': [0, 0], 'FEW': [0, 0], 'SCT': [0, 0], 'BKN': [0, 0], 'OVC': [0, 0], 'VV': [0, 0], '10': [0, 0], 'MISC': [0, 0]}, {'CLR': [0, 0], 'FEW': [0, 0], 'SCT': [0, 0], 'BKN': [0, 0], 'OVC': [0, 0], 'VV': [0, 0], '10': [0, 0], 'MISC': [0, 0]}, {'CLR': [0, 0], 'FEW': [0, 0], 'SCT': [0, 0], 'BKN': [0, 0], 'OVC': [0, 0], 'VV': [0, 0], '10': [0, 0], 'MISC': [0, 0]}]]
[13896, 53852, 60.72884965830401, [{'CLR': [0, 0], 'FEW': [0, 0], 'SCT': [0, 0], 'BKN': [0, 0], 'OVC': [0, 0], 'VV': [0, 0], '10': [0, 0], 'MISC': [0, 0]}, {'CLR': array([20373,  3578]), 'FEW': array([ 952, 3482]), 'SCT': array([ 545, 3214]), 'BKN': array([1924, 5591]), 'OVC': array([21406,  4856]), 'VV': array([237, 659]), '10': [0, 0], 'MISC': array([0, 1])}, {'CLR': array([612, 182]), 'FEW': array([ 74, 389]), 'SCT': array([115, 750]), 'BKN': array([ 495, 1483]), 'OVC': array([5198, 1377]), 'VV': array([106, 313]), '10': [0, 0], 'MISC': array([0, 3])}, {'CLR': array([65, 34]), 'FEW': array([36, 67]), 'SCT': array([25, 93]), 'BKN': array([ 48, 162]), 'OVC': array([210, 189]), 'VV': array([ 8, 42]), '10': [0, 0], 'MISC': array([0, 1])}, {'CLR': array([888, 621]), 'FEW': array([447, 654]), 'SCT': array([157, 590]), 'BKN': array([218, 823]), 'OVC': array([555, 745]), 'VV': array([  6, 303]), '10': [0, 0], 'MISC': array([1, 1])}]]
[63893, 93806, 55.04536266147853, [{'CLR': [0, 0], 'FEW': [0, 0], 'SCT': [0, 0], 'BKN': [0, 0], 'OVC': [0, 0], 'VV': [0, 0], '10': [0, 0], 'MISC': [0, 0]}, {'CLR': [0, 0], 'FEW': [0, 0], 'SCT': [0, 0], 'BKN': [0, 0], 'OVC': [0, 0], 'VV': [0, 0], '10': [0, 0], 'MISC': [0, 0]}, {'CLR': [0, 0], 'FEW': [0, 0], 'SCT': [0, 0], 'BKN': [0, 0], 'OVC': [0, 0], 'VV': [0, 0], '10': [0, 0], 'MISC': [0, 0]}, {'CLR': [0, 0], 'FEW': [0, 0], 'SCT': [0, 0], 'BKN': [0, 0], 'OVC': [0, 0], 'VV': [0, 0], '10': [0, 0], 'MISC': [0, 0]}, {'CLR': [0, 0], 'FEW': [0, 0], 'SCT': [0, 0], 'BKN': [0, 0], 'OVC': [0, 0], 'VV': [0, 0], '10': [0, 0], 'MISC': [0, 0]}]]
[93806, 53864, 77.6949114158947, [{'CLR': [0, 0], 'FEW': [0, 0], 'SCT': [0, 0], 'BKN': [0, 0], 'OVC': [0, 0], 'VV': [0, 0], '10': [0, 0], 'MISC': [0, 0]}, {'CLR': array([22674,  4900]), 'FEW': array([ 981, 4015]), 'SCT': array([ 631, 3528]), 'BKN': array([1835, 5956]), 'OVC': array([21523,  5164]), 'VV': array([157, 453]), '10': [0, 0], 'MISC': array([ 0, 27])}, {'CLR': array([651, 202]), 'FEW': array([ 98, 492]), 'SCT': array([121, 803]), 'BKN': array([ 487, 1705]), 'OVC': array([5403, 1718]), 'VV': array([ 40, 281]), '10': [0, 0], 'MISC': array([ 0, 10])}, {'CLR': array([58, 26]), 'FEW': array([23, 63]), 'SCT': array([13, 77]), 'BKN': array([ 45, 169]), 'OVC': array([190, 244]), 'VV': array([ 0, 32]), '10': [0, 0], 'MISC': [0, 0]}, {'CLR': array([1001,  431]), 'FEW': array([377, 515]), 'SCT': array([126, 399]), 'BKN': array([123, 621]), 'OVC': array([387, 722]), 'VV': array([  0, 131]), '10': [0, 0], 'MISC': array([0, 2])}]]
[186, 73802, 219.93357986585332, [{'CLR': [0, 0], 'FEW': [0, 0], 'SCT': [0, 0], 'BKN': [0, 0], 'OVC': [0, 0], 'VV': [0, 0], '10': [0, 0], 'MISC': [0, 0]}, {'CLR': [0, 0], 'FEW': [0, 0], 'SCT': [0, 0], 'BKN': [0, 0], 'OVC': [0, 0], 'VV': [0, 0], '10': [0, 0], 'MISC': [0, 0]}, {'CLR': [0, 0], 'FEW': [0, 0], 'SCT': [0, 0], 'BKN': [0, 0], 'OVC': [0, 0], 'VV': [0, 0], '10': [0, 0], 'MISC': [0, 0]}, {'CLR': [0, 0], 'FEW': [0, 0], 'SCT': [0, 0], 'BKN': [0, 0], 'OVC': [0, 0], 'VV': [0, 0], '10': [0, 0], 'MISC': [0, 0]}, {'CLR': [0, 0], 'FEW': [0, 0], 'SCT': [0, 0], 'BKN': [0, 0], 'OVC': [0, 0], 'VV': [0, 0], '10': [0, 0], 'MISC': [0, 0]}]]
[63867, 53852, 52.72912728073654, [{'CLR': [0, 0], 'FEW': [0, 0], 'SCT': [0, 0], 'BKN': [0, 0], 'OVC': [0, 0], 'VV': [0, 0], '10': [0, 0], 'MISC': [0, 0]}, {'CLR': [0, 0], 'FEW': [0, 0], 'SCT': [0, 0], 'BKN': [0, 0], 'OVC': [0, 0], 'VV': [0, 0], '10': [0, 0], 'MISC': [0, 0]}, {'CLR': [0, 0], 'FEW': [0, 0], 'SCT': [0, 0], 'BKN': [0, 0], 'OVC': [0, 0], 'VV': [0, 0], '10': [0, 0], 'MISC': [0, 0]}, {'CLR': [0, 0], 'FEW': [0, 0], 'SCT': [0, 0], 'BKN': [0, 0], 'OVC': [0, 0], 'VV': [0, 0], '10': [0, 0], 'MISC': [0, 0]}, {'CLR': [0, 0], 'FEW': [0, 0], 'SCT': [0, 0], 'BKN': [0, 0], 'OVC': [0, 0], 'VV': [0, 0], '10': [0, 0], 'MISC': [0, 0]}]]
[23802, 63897, 87.4386327274501, [{'CLR': [0, 0], 'FEW': [0, 0], 'SCT': [0, 0], 'BKN': [0, 0], 'OVC': [0, 0], 'VV': [0, 0], '10': [0, 0], 'MISC': [0, 0]}, {'CLR': [0, 0], 'FEW': [0, 0], 'SCT': [0, 0], 'BKN': [0, 0], 'OVC': [0, 0], 'VV': [0, 0], '10': [0, 0], 'MISC': [0, 0]}, {'CLR': [0, 0], 'FEW': [0, 0], 'SCT': [0, 0], 'BKN': [0, 0], 'OVC': [0, 0], 'VV': [0, 0], '10': [0, 0], 'MISC': [0, 0]}, {'CLR': [0, 0], 'FEW': [0, 0], 'SCT': [0, 0], 'BKN': [0, 0], 'OVC': [0, 0], 'VV': [0, 0], '10': [0, 0], 'MISC': [0, 0]}, {'CLR': [0, 0], 'FEW': [0, 0], 'SCT': [0, 0], 'BKN': [0, 0], 'OVC': [0, 0], 'VV': [0, 0], '10': [0, 0], 'MISC': [0, 0]}]]
[13894, 63899, 124.72315342764871, [{'CLR': [0, 0], 'FEW': [0, 0], 'SCT': [0, 0], 'BKN': [0, 0], 'OVC': [0, 0], 'VV': [0, 0], '10': [0, 0], 'MISC': [0, 0]}, {'CLR': [0, 0], 'FEW': [0, 0], 'SCT': [0, 0], 'BKN': [0, 0], 'OVC': [0, 0], 'VV': [0, 0], '10': [0, 0], 'MISC': [0, 0]}, {'CLR': [0, 0], 'FEW': [0, 0], 'SCT': [0, 0], 'BKN': [0, 0], 'OVC': [0, 0], 'VV': [0, 0], '10': [0, 0], 'MISC': [0, 0]}, {'CLR': [0, 0], 'FEW': [0, 0], 'SCT': [0, 0], 'BKN': [0, 0], 'OVC': [0, 0], 'VV': [0, 0], '10': [0, 0], 'MISC': [0, 0]}, {'CLR': [0, 0], 'FEW': [0, 0], 'SCT': [0, 0], 'BKN': [0, 0], 'OVC': [0, 0], 'VV': [0, 0], '10': [0, 0], 'MISC': [0, 0]}]]
[63804, 63896, 54.15533605610326, [{'CLR': [0, 0], 'FEW': [0, 0], 'SCT': [0, 0], 'BKN': [0, 0], 'OVC': [0, 0], 'VV': [0, 0], '10': [0, 0], 'MISC': [0, 0]}, {'CLR': [0, 0], 'FEW': [0, 0], 'SCT': [0, 0], 'BKN': [0, 0], 'OVC': [0, 0], 'VV': [0, 0], '10': [0, 0], 'MISC': [0, 0]}, {'CLR': [0, 0], 'FEW': [0, 0], 'SCT': [0, 0], 'BKN': [0, 0], 'OVC': [0, 0], 'VV': [0, 0], '10': [0, 0], 'MISC': [0, 0]}, {'CLR': [0, 0], 'FEW': [0, 0], 'SCT': [0, 0], 'BKN': [0, 0], 'OVC': [0, 0], 'VV': [0, 0], '10': [0, 0], 'MISC': [0, 0]}, {'CLR': [0, 0], 'FEW': [0, 0], 'SCT': [0, 0], 'BKN': [0, 0], 'OVC': [0, 0], 'VV': [0, 0], '10': [0, 0], 'MISC': [0, 0]}]]
[53852, 63839, 43.43745594928018, [{'CLR': [0, 0], 'FEW': [0, 0], 'SCT': [0, 0], 'BKN': [0, 0], 'OVC': [0, 0], 'VV': [0, 0], '10': [0, 0], 'MISC': [0, 0]}, {'CLR': array([848, 982]), 'FEW': array([   0, 2944]), 'SCT': array([ 640, 1920]), 'BKN': array([ 954, 4264]), 'OVC': array([11115,  7589]), 'VV': array([ 15, 243]), '10': [0, 0], 'MISC': array([ 0, 19])}, {'CLR': array([ 53, 278]), 'FEW': array([  0, 223]), 'SCT': array([ 23, 209]), 'BKN': array([ 58, 382]), 'OVC': array([849, 563]), 'VV': array([ 6, 37]), '10': [0, 0], 'MISC': [0, 0]}, {'CLR': array([ 22, 280]), 'FEW': array([ 0, 74]), 'SCT': array([ 1, 69]), 'BKN': array([ 8, 98]), 'OVC': array([56, 98]), 'VV': array([0, 7]), '10': [0, 0], 'MISC': [0, 0]}, {'CLR': array([  35, 1967]), 'FEW': array([  0, 188]), 'SCT': array([  4, 121]), 'BKN': array([  2, 223]), 'OVC': array([ 33, 233]), 'VV': array([ 0, 29]), '10': [0, 0], 'MISC': [0, 0]}]]
[23801, 63873, 58.21498694751442, [{'CLR': [0, 0], 'FEW': [0, 0], 'SCT': [0, 0], 'BKN': [0, 0], 'OVC': [0, 0], 'VV': [0, 0], '10': [0, 0], 'MISC': [0, 0]}, {'CLR': [0, 0], 'FEW': [0, 0], 'SCT': [0, 0], 'BKN': [0, 0], 'OVC': [0, 0], 'VV': [0, 0], '10': [0, 0], 'MISC': [0, 0]}, {'CLR': [0, 0], 'FEW': [0, 0], 'SCT': [0, 0], 'BKN': [0, 0], 'OVC': [0, 0], 'VV': [0, 0], '10': [0, 0], 'MISC': [0, 0]}, {'CLR': [0, 0], 'FEW': [0, 0], 'SCT': [0, 0], 'BKN': [0, 0], 'OVC': [0, 0], 'VV': [0, 0], '10': [0, 0], 'MISC': [0, 0]}, {'CLR': [0, 0], 'FEW': [0, 0], 'SCT': [0, 0], 'BKN': [0, 0], 'OVC': [0, 0], 'VV': [0, 0], '10': [0, 0], 'MISC': [0, 0]}]]
[63872, 13839, 76.76877591515374, [{'CLR': [0, 0], 'FEW': [0, 0], 'SCT': [0, 0], 'BKN': [0, 0], 'OVC': [0, 0], 'VV': [0, 0], '10': [0, 0], 'MISC': [0, 0]}, {'CLR': array([21792,  6109]), 'FEW': array([ 871, 4066]), 'SCT': array([ 782, 3488]), 'BKN': array([1946, 5741]), 'OVC': array([15607,  5953]), 'VV': array([268, 568]), '10': [0, 0], 'MISC': array([0, 8])}, {'CLR': array([605, 377]), 'FEW': array([ 95, 689]), 'SCT': array([ 217, 1092]), 'BKN': array([ 689, 2397]), 'OVC': array([4962, 2376]), 'VV': array([ 34, 252]), '10': [0, 0], 'MISC': [0, 0]}, {'CLR': array([ 80, 179]), 'FEW': array([ 79, 184]), 'SCT': array([ 54, 162]), 'BKN': array([104, 311]), 'OVC': array([279, 313]), 'VV': array([ 1, 15]), '10': [0, 0], 'MISC': array([0, 1])}, {'CLR': array([ 136, 1369]), 'FEW': array([186, 369]), 'SCT': array([103, 313]), 'BKN': array([207, 529]), 'OVC': array([481, 458]), 'VV': array([ 0, 49]), '10': [0, 0], 'MISC': array([0, 3])}]]
[63897, 63874, 64.48559949682335, [{'CLR': [0, 0], 'FEW': [0, 0], 'SCT': [0, 0], 'BKN': [0, 0], 'OVC': [0, 0], 'VV': [0, 0], '10': [0, 0], 'MISC': [0, 0]}, {'CLR': [0, 0], 'FEW': [0, 0], 'SCT': [0, 0], 'BKN': [0, 0], 'OVC': [0, 0], 'VV': [0, 0], '10': [0, 0], 'MISC': [0, 0]}, {'CLR': [0, 0], 'FEW': [0, 0], 'SCT': [0, 0], 'BKN': [0, 0], 'OVC': [0, 0], 'VV': [0, 0], '10': [0, 0], 'MISC': [0, 0]}, {'CLR': [0, 0], 'FEW': [0, 0], 'SCT': [0, 0], 'BKN': [0, 0], 'OVC': [0, 0], 'VV': [0, 0], '10': [0, 0], 'MISC': [0, 0]}, {'CLR': [0, 0], 'FEW': [0, 0], 'SCT': [0, 0], 'BKN': [0, 0], 'OVC': [0, 0], 'VV': [0, 0], '10': [0, 0], 'MISC': [0, 0]}]]
[63857, 3896, 37.07260632366413, [{'CLR': [0, 0], 'FEW': [0, 0], 'SCT': [0, 0], 'BKN': [0, 0], 'OVC': [0, 0], 'VV': [0, 0], '10': [0, 0], 'MISC': [0, 0]}, {'CLR': [0, 0], 'FEW': [0, 0], 'SCT': [0, 0], 'BKN': [0, 0], 'OVC': [0, 0], 'VV': [0, 0], '10': [0, 0], 'MISC': [0, 0]}, {'CLR': [0, 0], 'FEW': [0, 0], 'SCT': [0, 0], 'BKN': [0, 0], 'OVC': [0, 0], 'VV': [0, 0], '10': [0, 0], 'MISC': [0, 0]}, {'CLR': [0, 0], 'FEW': [0, 0], 'SCT': [0, 0], 'BKN': [0, 0], 'OVC': [0, 0], 'VV': [0, 0], '10': [0, 0], 'MISC': [0, 0]}, {'CLR': [0, 0], 'FEW': [0, 0], 'SCT': [0, 0], 'BKN': [0, 0], 'OVC': [0, 0], 'VV': [0, 0], '10': [0, 0], 'MISC': [0, 0]}]]
